{
  "1" : {
      "texte":"oui ou non ?",
      "suivantes":{"oui":"2","non":"bye","jsp":"1.1"},
      "var":[]
    },
  "1.1" : {
        "texte":"jcpcompros ca {}",
        "suivantes":{},
        "var":["user_response"]
      }
}
