[
    {
        "brth": "24/05/1941",
        "fname": "bob",
        "lname": "dylan"
    },
    {
        "brth": "20/03/1998",
        "fname": "elise",
        "lname": "marquet"
    },
    {
        "brth": "22/12/1998",
        "fname": "bastien",
        "lname": "cany"
    },
    {
        "birth": "12/30/3456",
        "fname": "léo",
        "lname": "dingo"
    },
    {
        "birth": "12/11/1234",
        "fname": "léo",
        "lname": "déglingo"
    },
    {
        "birth": "13/07/1997",
        "fname": "elsie",
        "lname": "caca"
    },
    {
        "birth": "12/09/2019",
        "fname": "willer",
        "lname": "josh"
    },
    {
        "birth": "12/34/1235",
        "fname": "michel",
        "lname": "cloclo"
    }
]